<svg version="1.1" id="Layer_2" xmlns="http://www.w3.org/2000/svg" xmlns:xlink="http://www.w3.org/1999/xlink" x="0px" y="0px"
	 width="34px" height="34px" viewBox="0 0 45.093 45.094" enable-background="new 0 0 45.093 45.094" xml:space="preserve">
<g>
	<path d="M22.546,1.5c5.861,0,10.728,2.018,14.879,6.168c4.15,4.15,6.168,9.018,6.168,14.878c0,5.862-2.018,10.729-6.168,14.879
		c-4.151,4.151-9.019,6.169-14.879,6.169s-10.727-2.018-14.879-6.17c-0.454-0.453-0.817-0.839-1.145-1.217
		C3.189,32.375,1.5,27.778,1.5,22.546c0-5.23,1.689-9.827,5.021-13.66c0.325-0.374,0.69-0.761,1.146-1.219
		C11.818,3.518,16.686,1.5,22.546,1.5 M22.546,0C16.325,0,11.012,2.203,6.606,6.607c-0.424,0.425-0.83,0.85-1.217,1.294
		C1.796,12.037,0,16.925,0,22.546c0,5.623,1.796,10.511,5.39,14.646c0.387,0.445,0.792,0.87,1.217,1.294
		c4.406,4.405,9.718,6.608,15.939,6.608c6.221,0,11.534-2.203,15.939-6.608c4.405-4.404,6.607-9.718,6.607-15.939
		c0-6.221-2.202-11.534-6.607-15.939C34.08,2.203,28.767,0,22.546,0L22.546,0z"/>
</g>
<g>
	<path d="M26.753,15.517c1.097,0,2.088,0.463,2.782,1.204c0.869-0.171,1.685-0.488,2.422-0.925
		c-0.284,0.89-0.889,1.637-1.677,2.109c0.771-0.092,1.505-0.297,2.189-0.6c-0.511,0.765-1.157,1.436-1.902,1.973
		c0.008,0.165,0.012,0.329,0.012,0.493c0,5.038-3.835,10.847-10.846,10.847c-2.153,0-4.157-0.631-5.844-1.713
		c0.298,0.036,0.602,0.054,0.909,0.054c1.787,0,3.43-0.609,4.734-1.633c-1.668-0.029-3.076-1.132-3.561-2.646
		c0.233,0.045,0.472,0.068,0.717,0.068c0.348,0,0.685-0.047,1.004-0.135c-1.743-0.349-3.058-1.89-3.058-3.737
		c0-0.017,0-0.032,0-0.048c0.514,0.286,1.103,0.457,1.727,0.476c-1.022-0.683-1.696-1.85-1.696-3.172
		c0-0.699,0.188-1.354,0.517-1.917c1.88,2.306,4.689,3.824,7.857,3.983c-0.064-0.279-0.099-0.57-0.099-0.869
		C22.941,17.223,24.648,15.517,26.753,15.517 M34.585,12.497l-3.393,2.008c-0.4,0.237-0.822,0.427-1.261,0.567
		c-0.911-0.678-2.029-1.055-3.179-1.055c-2.639,0-4.834,1.935-5.243,4.46c-2.012-0.46-3.839-1.584-5.165-3.21l-1.368-1.678
		l-1.09,1.871c-0.472,0.809-0.721,1.733-0.721,2.672c0,0.055,0.001,0.11,0.002,0.166l-0.033-0.019v2.549
		c0,1.2,0.391,2.317,1.058,3.217l0.35,1.092c0.277,0.864,0.761,1.62,1.388,2.219c-0.37,0.068-0.749,0.103-1.133,0.103
		c-0.249,0-0.494-0.015-0.729-0.043L7.56,26.626l5.519,3.54c1.989,1.275,4.29,1.95,6.654,1.95c3.621,0,6.879-1.436,9.177-4.042
		c1.964-2.228,3.11-5.16,3.167-8.08c0.626-0.54,1.176-1.163,1.64-1.857l2.871-4.297l-2.832,1.254L34.585,12.497L34.585,12.497z"/>
</g>
</svg>
