<svg version="1.1" id="Layer_1" xmlns="http://www.w3.org/2000/svg" xmlns:xlink="http://www.w3.org/1999/xlink" x="0px" y="0px"
	  height="18px" width="18px" viewBox="0 0 20 20" enable-background="new 0 0 20 20" xml:space="preserve">
<path  d="M18.19,3.528H1.81c-0.994,0-1.8,0.806-1.8,1.8v9.344c0,0.994,0.806,1.8,1.8,1.8H18.19
	c0.994,0,1.8-0.806,1.8-1.8V5.328C19.99,4.334,19.185,3.528,18.19,3.528z M2.003,4.509h15.838c0.173,0,0.336,0.038,0.484,0.104
	l-7.809,6.8c-0.114,0.088-0.285,0.147-0.456,0.147c-0.168,0-0.328-0.057-0.462-0.164L1.716,4.548
	C1.809,4.525,1.904,4.509,2.003,4.509z M1.022,5.866c0-0.121,0.023-0.234,0.056-0.344l5.313,4.55l-5.312,4.473
	c-0.034-0.111-0.057-0.227-0.057-0.348V5.866z M18.091,15.521H2.097c-0.086,0-0.17-0.01-0.251-0.027l5.288-4.76l1.696,1.559
	c0.741,0.592,1.746,0.568,2.446,0.025l1.535-1.366l5.531,4.542C18.261,15.512,18.177,15.521,18.091,15.521z M18.979,14.291
	c0,0.121-0.023,0.236-0.058,0.348l-5.389-4.465l5.432-4.761c0.006,0.047,0.015,0.092,0.015,0.14V14.291z"/>
</svg>
